<svg xmlns="http://www.w3.org/2000/svg" width="26" height="34" viewBox="0 0 13 17">
  <metadata><?xpacket begin="﻿" id="W5M0MpCehiHzreSzNTczkc9d"?>
<x:xmpmeta xmlns:x="adobe:ns:meta/" x:xmptk="Adobe XMP Core 5.6-c140 79.160451, 2017/05/06-01:08:21        ">
   <rdf:RDF xmlns:rdf="http://www.w3.org/1999/02/22-rdf-syntax-ns#">
      <rdf:Description rdf:about=""/>
   </rdf:RDF>
</x:xmpmeta>
                                                                                                    
                                                                                                    
                                                                                                    
                                                                                                    
                                                                                                    
                                                                                                    
                                                                                                    
                                                                                                    
                                                                                                    
                                                                                                    
                                                                                                    
                                                                                                    
                                                                                                    
                                                                                                    
                                                                                                    
                                                                                                    
                                                                                                    
                                                                                                    
                                                                                                    
                                                                                                    
                           
<?xpacket end="w"?></metadata>
<defs>
    <style>
      #Dashboard {
        fill: #fff;
        fill-rule: evenodd;
      }
    </style>
  </defs>
  <path id="Dashboard" class="cls-1" d="M2366.46,1522h-11.92a0.536,0.536,0,0,1-.54-0.53v-13.81a1.618,1.618,0,0,1,1.63-1.6h1.62v-0.26a0.8,0.8,0,0,1,.81-0.8,0.813,0.813,0,0,1,.82.8v0.26h3.25v-0.26a0.81,0.81,0,0,1,1.62,0v0.26h1.63a1.615,1.615,0,0,1,1.62,1.6v13.81A0.536,0.536,0,0,1,2366.46,1522Zm-1.08-14.34h-1.63v1.06h-1.62v-1.06h-3.26v1.06h-1.62v-1.06h-1.62v2.12h9.75v-2.12Zm0,3.72h-9.75v9.03h9.75v-9.03Zm-2.17,3.71h-5.42v-1.59h5.42v1.59Zm0,3.19h-5.42v-1.59h5.42v1.59Z" transform="translate(-2354 -1505)"/>
</svg>
