<svg xmlns="http://www.w3.org/2000/svg" width="32" height="32" viewBox="0 0 16 16">
  <metadata><?xpacket begin="﻿" id="W5M0MpCehiHzreSzNTczkc9d"?>
<x:xmpmeta xmlns:x="adobe:ns:meta/" x:xmptk="Adobe XMP Core 5.6-c140 79.160451, 2017/05/06-01:08:21        ">
   <rdf:RDF xmlns:rdf="http://www.w3.org/1999/02/22-rdf-syntax-ns#">
      <rdf:Description rdf:about=""/>
   </rdf:RDF>
</x:xmpmeta>
                                                                                                    
                                                                                                    
                                                                                                    
                                                                                                    
                                                                                                    
                                                                                                    
                                                                                                    
                                                                                                    
                                                                                                    
                                                                                                    
                                                                                                    
                                                                                                    
                                                                                                    
                                                                                                    
                                                                                                    
                                                                                                    
                                                                                                    
                                                                                                    
                                                                                                    
                                                                                                    
                           
<?xpacket end="w"?></metadata>
<defs>
    <style>
      #MONITORING {
        fill: #fff;
        fill-rule: evenodd;
      }
    </style>
  </defs>
  <path id="MONITORING" class="cls-1" d="M2369,2848h-10a1,1,0,0,0-1,1v3h-3a1,1,0,0,0-1,1v10a1,1,0,0,0,1,1h10a1,1,0,0,0,1-1v-3h3a1,1,0,0,0,1-1v-10A1,1,0,0,0,2369,2848Zm-4.5,14.5h-9v-9h2.5v5.5a1,1,0,0,0,1,1h5.5v2.5Zm4-4h-9v-9h9v9Z" transform="translate(-2354 -2848)"/>
</svg>
