<svg xmlns="http://www.w3.org/2000/svg" width="46" height="26" viewBox="0 0 23 13">
  <metadata><?xpacket begin="﻿" id="W5M0MpCehiHzreSzNTczkc9d"?>
<x:xmpmeta xmlns:x="adobe:ns:meta/" x:xmptk="Adobe XMP Core 5.6-c140 79.160451, 2017/05/06-01:08:21        ">
   <rdf:RDF xmlns:rdf="http://www.w3.org/1999/02/22-rdf-syntax-ns#">
      <rdf:Description rdf:about=""/>
   </rdf:RDF>
</x:xmpmeta>
                                                                                                    
                                                                                                    
                                                                                                    
                                                                                                    
                                                                                                    
                                                                                                    
                                                                                                    
                                                                                                    
                                                                                                    
                                                                                                    
                                                                                                    
                                                                                                    
                                                                                                    
                                                                                                    
                                                                                                    
                                                                                                    
                                                                                                    
                                                                                                    
                                                                                                    
                                                                                                    
                           
<?xpacket end="w"?></metadata>
<defs>
    <style>
      #Pin_1 {
        fill: #464646;
        fill-rule: evenodd;
      }
    </style>
  </defs>
  <path id="Pin_1" data-name="Pin 1" class="cls-1" d="M1300,2910.58v-2.16c0-1.09-1.57-1.09-1.57-1.12v4.37S1300,2911.67,1300,2910.58Zm-4.29-7.58H1279.2c-2.18,0-2.2,2.36-2.2,2.36v8.28s0,2.36,2.2,2.36h16.51c2.2,0,2.2-2.36,2.2-2.36v-8.28S1297.91,2903,1295.71,2903Zm1.15,10.71a1.155,1.155,0,0,1-1.1,1.21h-16.61a1.155,1.155,0,0,1-1.1-1.21v-8.42a1.155,1.155,0,0,1,1.1-1.21h16.61a1.122,1.122,0,0,1,1.1,1.21v8.42Zm-17.05.6h0a0.728,0.728,0,0,1-.72-0.74v-8.14a0.728,0.728,0,0,1,.72-0.74h0a0.728,0.728,0,0,1,.72.74v8.14A0.728,0.728,0,0,1,1279.81,2914.31Z" transform="translate(-1277 -2903)"/>
</svg>
