<svg xmlns="http://www.w3.org/2000/svg" width="59" height="71" viewBox="0 0 29.5 35.5">
  <metadata><?xpacket begin="﻿" id="W5M0MpCehiHzreSzNTczkc9d"?>
<x:xmpmeta xmlns:x="adobe:ns:meta/" x:xmptk="Adobe XMP Core 5.6-c140 79.160451, 2017/05/06-01:08:21        ">
   <rdf:RDF xmlns:rdf="http://www.w3.org/1999/02/22-rdf-syntax-ns#">
      <rdf:Description rdf:about=""/>
   </rdf:RDF>
</x:xmpmeta>
                                                                                                    
                                                                                                    
                                                                                                    
                                                                                                    
                                                                                                    
                                                                                                    
                                                                                                    
                                                                                                    
                                                                                                    
                                                                                                    
                                                                                                    
                                                                                                    
                                                                                                    
                                                                                                    
                                                                                                    
                                                                                                    
                                                                                                    
                                                                                                    
                                                                                                    
                                                                                                    
                           
<?xpacket end="w"?></metadata>
<defs>
    <style>
      #FALL {
        fill: none;
        stroke: #3d3d3d;
        stroke-width: 1.5px;
        fill-rule: evenodd;
      }
    </style>
  </defs>
  <path id="FALL" class="cls-1" d="M1288.72,2713.27a103.731,103.731,0,0,1-10.06,3.86c-0.6-1.87-.95-3.45-1.45-5.7a4.8,4.8,0,0,0-1.31-2.4q2.835-4.05,5.67-8.11c1.77-2.54-2.11-5.5-3.89-2.94q-3.885,5.55-7.76,11.1a2.531,2.531,0,0,0-.25.45,3.4,3.4,0,0,0-.8,2.92,79.808,79.808,0,0,0,2.1,8.04,3.6,3.6,0,0,0,2,2.1,1.89,1.89,0,0,0,.27.2,98.155,98.155,0,0,0,14.45,7.99c2.9,1.26,4.81-3.14,1.9-4.41a85.285,85.285,0,0,1-9.21-4.77,108.639,108.639,0,0,0,10.17-3.89C1293.43,2716.41,1291.61,2711.97,1288.72,2713.27Zm-17.21-7.63a3.956,3.956,0,0,0-.72-5.69,4.309,4.309,0,0,0-5.9.69,3.956,3.956,0,0,0,.72,5.69A4.309,4.309,0,0,0,1271.51,2705.64Z" transform="translate(-1263.25 -2696.25)"/>
</svg>
